{
  "id": 14,
  "firstName": "Mario",
  "lastName": "Rossi",
  "activate": true,
  "address": {
    "street": "100 Main St",
    "city": "Philadelphia",
    "state": "Pennsylvania",
    "zip": 19103,
    "country": "USA"
  },
  "languages": ["polish", "english", "french"]
}